…
## `select()` (8 min)

1. Make a data frame containing the columns `year`, `lifeExp`, `country` from the gapminder data, in that order.


```r
select(gapminder, year, lifeExp, country)
```

```
## # A tibble: 1,704 x 3
##     year lifeExp country    
##    <int>   <dbl> <fct>      
##  1  1952    28.8 Afghanistan
##  2  1957    30.3 Afghanistan
##  3  1962    32.0 Afghanistan
##  4  1967    34.0 Afghanistan
##  5  1972    36.1 Afghanistan
##  6  1977    38.4 Afghanistan
##  7  1982    39.9 Afghanistan
##  8  1987    40.8 Afghanistan
##  9  1992    41.7 Afghanistan
## 10  1997    41.8 Afghanistan
## # … with 1,694 more rows
```


2. Select all variables, from `country` to `lifeExp`.


```r
# This will work:
select(gapminder, country, continent, year, lifeExp)
```

```
## # A tibble: 1,704 x 4
##    country     continent  year lifeExp
##    <fct>       <fct>     <int>   <dbl>
##  1 Afghanistan Asia       1952    28.8
##  2 Afghanistan Asia       1957    30.3
##  3 Afghanistan Asia       1962    32.0
##  4 Afghanistan Asia       1967    34.0
##  5 Afghanistan Asia       1972    36.1
##  6 Afghanistan Asia       1977    38.4
##  7 Afghanistan Asia       1982    39.9
##  8 Afghanistan Asia       1987    40.8
##  9 Afghanistan Asia       1992    41.7
## 10 Afghanistan Asia       1997    41.8
## # … with 1,694 more rows
```

```r
# Better way:
select(gapminder, country:lifeExp)
```

```
## # A tibble: 1,704 x 4
##    country     continent  year lifeExp
##    <fct>       <fct>     <int>   <dbl>
##  1 Afghanistan Asia       1952    28.8
##  2 Afghanistan Asia       1957    30.3
##  3 Afghanistan Asia       1962    32.0
##  4 Afghanistan Asia       1967    34.0
##  5 Afghanistan Asia       1972    36.1
##  6 Afghanistan Asia       1977    38.4
##  7 Afghanistan Asia       1982    39.9
##  8 Afghanistan Asia       1987    40.8
##  9 Afghanistan Asia       1992    41.7
## 10 Afghanistan Asia       1997    41.8
## # … with 1,694 more rows
```


3. Select all variables, except `lifeExp`.


```r
select(gapminder, country:lifeExp)
```

```
## # A tibble: 1,704 x 4
##    country     continent  year lifeExp
##    <fct>       <fct>     <int>   <dbl>
##  1 Afghanistan Asia       1952    28.8
##  2 Afghanistan Asia       1957    30.3
##  3 Afghanistan Asia       1962    32.0
##  4 Afghanistan Asia       1967    34.0
##  5 Afghanistan Asia       1972    36.1
##  6 Afghanistan Asia       1977    38.4
##  7 Afghanistan Asia       1982    39.9
##  8 Afghanistan Asia       1987    40.8
##  9 Afghanistan Asia       1992    41.7
## 10 Afghanistan Asia       1997    41.8
## # … with 1,694 more rows
```

4. Put `continent` first. Hint: use the `everything()` function.


```r
select(gapminder, continent, everything())
```

```
## # A tibble: 1,704 x 6
##    continent country      year lifeExp      pop gdpPercap
##    <fct>     <fct>       <int>   <dbl>    <int>     <dbl>
##  1 Asia      Afghanistan  1952    28.8  8425333      779.
##  2 Asia      Afghanistan  1957    30.3  9240934      821.
##  3 Asia      Afghanistan  1962    32.0 10267083      853.
##  4 Asia      Afghanistan  1967    34.0 11537966      836.
##  5 Asia      Afghanistan  1972    36.1 13079460      740.
##  6 Asia      Afghanistan  1977    38.4 14880372      786.
##  7 Asia      Afghanistan  1982    39.9 12881816      978.
##  8 Asia      Afghanistan  1987    40.8 13867957      852.
##  9 Asia      Afghanistan  1992    41.7 16317921      649.
## 10 Asia      Afghanistan  1997    41.8 22227415      635.
## # … with 1,694 more rows
```


5. Rename `continent` to `cont`.


```r
# compare
select(gapminder, cont=continent, everything())
```

```
## # A tibble: 1,704 x 6
##    cont  country      year lifeExp      pop gdpPercap
##    <fct> <fct>       <int>   <dbl>    <int>     <dbl>
##  1 Asia  Afghanistan  1952    28.8  8425333      779.
##  2 Asia  Afghanistan  1957    30.3  9240934      821.
##  3 Asia  Afghanistan  1962    32.0 10267083      853.
##  4 Asia  Afghanistan  1967    34.0 11537966      836.
##  5 Asia  Afghanistan  1972    36.1 13079460      740.
##  6 Asia  Afghanistan  1977    38.4 14880372      786.
##  7 Asia  Afghanistan  1982    39.9 12881816      978.
##  8 Asia  Afghanistan  1987    40.8 13867957      852.
##  9 Asia  Afghanistan  1992    41.7 16317921      649.
## 10 Asia  Afghanistan  1997    41.8 22227415      635.
## # … with 1,694 more rows
```
…
## `arrange()` (8 min)

1. Order by year.


```r
arrange(gapminder, lifeExp)
```

```
## # A tibble: 1,704 x 6
##    country      continent  year lifeExp     pop gdpPercap
##    <fct>        <fct>     <int>   <dbl>   <int>     <dbl>
##  1 Rwanda       Africa     1992    23.6 7290203      737.
##  2 Afghanistan  Asia       1952    28.8 8425333      779.
##  3 Gambia       Africa     1952    30    284320      485.
##  4 Angola       Africa     1952    30.0 4232095     3521.
##  5 Sierra Leone Africa     1952    30.3 2143249      880.
##  6 Afghanistan  Asia       1957    30.3 9240934      821.
##  7 Cambodia     Asia       1977    31.2 6978607      525.
##  8 Mozambique   Africa     1952    31.3 6446316      469.
##  9 Sierra Leone Africa     1957    31.6 2295678     1004.
## 10 Burkina Faso Africa     1952    32.0 4469979      543.
## # … with 1,694 more rows
```

2. Order by year, in descending order.


```r
arrange(gapminder, desc(lifeExp))
```

```
## # A tibble: 1,704 x 6
##    country          continent  year lifeExp       pop gdpPercap
##    <fct>            <fct>     <int>   <dbl>     <int>     <dbl>
##  1 Japan            Asia       2007    82.6 127467972    31656.
##  2 Hong Kong, China Asia       2007    82.2   6980412    39725.
##  3 Japan            Asia       2002    82   127065841    28605.
##  4 Iceland          Europe     2007    81.8    301931    36181.
##  5 Switzerland      Europe     2007    81.7   7554661    37506.
##  6 Hong Kong, China Asia       2002    81.5   6762476    30209.
##  7 Australia        Oceania    2007    81.2  20434176    34435.
##  8 Spain            Europe     2007    80.9  40448191    28821.
##  9 Sweden           Europe     2007    80.9   9031088    33860.
## 10 Israel           Asia       2007    80.7   6426679    25523.
## # … with 1,694 more rows
```

3. Order by year, then by life expectancy.


```r
arrange(gapminder, year, lifeExp)
```

```
## # A tibble: 1,704 x 6
##    country       continent  year lifeExp     pop gdpPercap
##    <fct>         <fct>     <int>   <dbl>   <int>     <dbl>
##  1 Afghanistan   Asia       1952    28.8 8425333      779.
##  2 Gambia        Africa     1952    30    284320      485.
##  3 Angola        Africa     1952    30.0 4232095     3521.
##  4 Sierra Leone  Africa     1952    30.3 2143249      880.
##  5 Mozambique    Africa     1952    31.3 6446316      469.
##  6 Burkina Faso  Africa     1952    32.0 4469979      543.
##  7 Guinea-Bissau Africa     1952    32.5  580653      300.
##  8 Yemen, Rep.   Asia       1952    32.5 4963829      782.
##  9 Somalia       Africa     1952    33.0 2526994     1136.
## 10 Guinea        Africa     1952    33.6 2664249      510.
## # … with 1,694 more rows
```
…
```r
# Nesting function calls can be hard to read
arrange(select(gapminder, year, lifeExp, country), year, lifeExp)
```

Now using with pipes:


```r
# alter the below to include 2 "pipes"
arrange(select(gapminder, year, lifeExp, country), year, lifeExp)
```

```
## # A tibble: 1,704 x 3
##     year lifeExp country      
##    <int>   <dbl> <fct>        
##  1  1952    28.8 Afghanistan  
##  2  1952    30   Gambia       
##  3  1952    30.0 Angola       
##  4  1952    30.3 Sierra Leone 
##  5  1952    31.3 Mozambique   
##  6  1952    32.0 Burkina Faso 
##  7  1952    32.5 Guinea-Bissau
##  8  1952    32.5 Yemen, Rep.  
##  9  1952    33.0 Somalia      
## 10  1952    33.6 Guinea       
## # … with 1,694 more rows
```

```r
gapminder %>%
  select(year, lifeExp,country) %>% # this line selects columns year..
  arrange(year,lifeExp)
```

```
## # A tibble: 1,704 x 3
##     year lifeExp country      
##    <int>   <dbl> <fct>        
##  1  1952    28.8 Afghanistan  
##  2  1952    30   Gambia       
##  3  1952    30.0 Angola       
##  4  1952    30.3 Sierra Leone 
##  5  1952    31.3 Mozambique   
##  6  1952    32.0 Burkina Faso 
##  7  1952    32.5 Guinea-Bissau
##  8  1952    32.5 Yemen, Rep.  
##  9  1952    33.0 Somalia      
## 10  1952    33.6 Guinea       
## # … with 1,694 more rows
```
…
Return to guide at section 6.7.

## `filter()` (10 min)

1. Only take data with population greater than 100 million.


```r
gapminder %>%
  filter(pop>100000000)
```

```
## # A tibble: 77 x 6
##    country    continent  year lifeExp       pop gdpPercap
##    <fct>      <fct>     <int>   <dbl>     <int>     <dbl>
##  1 Bangladesh Asia       1987    52.8 103764241      752.
##  2 Bangladesh Asia       1992    56.0 113704579      838.
##  3 Bangladesh Asia       1997    59.4 123315288      973.
##  4 Bangladesh Asia       2002    62.0 135656790     1136.
##  5 Bangladesh Asia       2007    64.1 150448339     1391.
##  6 Brazil     Americas   1972    59.5 100840058     4986.
##  7 Brazil     Americas   1977    61.5 114313951     6660.
##  8 Brazil     Americas   1982    63.3 128962939     7031.
##  9 Brazil     Americas   1987    65.2 142938076     7807.
## 10 Brazil     Americas   1992    67.1 155975974     6950.
## # … with 67 more rows
```

2. Your turn: of those rows filtered from step 1., only take data from Asia.


```r
gapminder %>%
  filter(pop>100000000, continent == 'Asia')
```

```
## # A tibble: 52 x 6
##    country    continent  year lifeExp       pop gdpPercap
##    <fct>      <fct>     <int>   <dbl>     <int>     <dbl>
##  1 Bangladesh Asia       1987    52.8 103764241      752.
##  2 Bangladesh Asia       1992    56.0 113704579      838.
##  3 Bangladesh Asia       1997    59.4 123315288      973.
##  4 Bangladesh Asia       2002    62.0 135656790     1136.
##  5 Bangladesh Asia       2007    64.1 150448339     1391.
##  6 China      Asia       1952    44   556263527      400.
##  7 China      Asia       1957    50.5 637408000      576.
##  8 China      Asia       1962    44.5 665770000      488.
##  9 China      Asia       1967    58.4 754550000      613.
## 10 China      Asia       1972    63.1 862030000      677.
## # … with 42 more rows
```
…
The `if_else` function is useful for changing certain elements in a data frame.

Example: Suppose Canada's 1952 life expectancy was mistakenly entered as 68.8 in the data frame, but is actually 70. Fix it using `if_else` and `mutate`. 


```r
gapminder %>%
  mutate(lifeExp= if_else(country == 'Canada' &year == 1972, 70, lifeExp))
```

```
## # A tibble: 1,704 x 6
##    country     continent  year lifeExp      pop gdpPercap
##    <fct>       <fct>     <int>   <dbl>    <int>     <dbl>
##  1 Afghanistan Asia       1952    28.8  8425333      779.
##  2 Afghanistan Asia       1957    30.3  9240934      821.
##  3 Afghanistan Asia       1962    32.0 10267083      853.
##  4 Afghanistan Asia       1967    34.0 11537966      836.
##  5 Afghanistan Asia       1972    36.1 13079460      740.
##  6 Afghanistan Asia       1977    38.4 14880372      786.
##  7 Afghanistan Asia       1982    39.9 12881816      978.
##  8 Afghanistan Asia       1987    40.8 13867957      852.
##  9 Afghanistan Asia       1992    41.7 16317921      649.
## 10 Afghanistan Asia       1997    41.8 22227415      635.
## # … with 1,694 more rows
```
…
