…
1. Put "meal" and "attendance" as their own columns, with the events living in a new column.
underscore is seperating the left from the right

- party - name. just wanting to specify what you want. easier to just say i want all the columns except for party and name.
THINGS ON THE LEFT, OWn column, and thing on right own column, so wedding ,  brunch vs __

```r
(guest_long <- guest %>% 
  pivot_longer(cols      = c(-party,-name), 
               names_to  = c("values","event"),
               names_sep="_"))
```

```
## # A tibble: 150 x 5
##    party name            values     event   value     
##    <dbl> <chr>           <chr>      <chr>   <chr>     
##  1     1 Sommer Medrano  meal       wedding PENDING   
##  2     1 Sommer Medrano  meal       brunch  PENDING   
##  3     1 Sommer Medrano  attendance wedding PENDING   
##  4     1 Sommer Medrano  attendance brunch  PENDING   
##  5     1 Sommer Medrano  attendance golf    PENDING   
##  6     1 Phillip Medrano meal       wedding vegetarian
##  7     1 Phillip Medrano meal       brunch  Menu C    
##  8     1 Phillip Medrano attendance wedding CONFIRMED 
##  9     1 Phillip Medrano attendance brunch  CONFIRMED 
## 10     1 Phillip Medrano attendance golf    CONFIRMED 
## # … with 140 more rows
```
…
6. You also have a list of emails for each party, in this worksheet under the variable `email`. Change this so that each person gets their own row. Use `tidyr::separate_rows()`
each row of guest column is just a bunch of names seperated by columns. each party has their own email.
seperate rows, comma space


```r
email %>% 
  separate_rows(guest, sep = ", ")
```

```
## # A tibble: 28 x 2
##    guest           email              
##    <chr>           <chr>              
##  1 Sommer Medrano  sommm@gmail.com    
##  2 Phillip Medrano sommm@gmail.com    
##  3 Blanka Medrano  sommm@gmail.com    
##  4 Emaan Medrano   sommm@gmail.com    
##  5 Blair Park      bpark@gmail.com    
##  6 Nigel Webb      bpark@gmail.com    
##  7 Sinead English  singlish@hotmail.ca
##  8 Ayra Marks      marksa42@gmail.com 
##  9 Jolene Welsh    jw1987@hotmail.com 
## 10 Hayley Booker   jw1987@hotmail.com 
## # … with 18 more rows
```
…
