…
Bind_rows() and bind_cols

The package `singer` comes with two smallish data frames about songs. Let's take a look at them (after minor modifications by renaming and shuffling):


```r
(time <- as_tibble(songs) %>% 
   rename(song = title))
```

```
## # A tibble: 22 x 3
##    song                             artist_name      year
##    <chr>                            <chr>           <int>
##  1 Corduroy                         Pearl Jam        1994
##  2 Grievance                        Pearl Jam        2000
##  3 Stupidmop                        Pearl Jam        1994
##  4 Present Tense                    Pearl Jam        1996
##  5 MFC                              Pearl Jam        1998
##  6 Lukin                            Pearl Jam        1996
##  7 It's Lulu                        The Boo Radleys  1995
##  8 Sparrow                          The Boo Radleys  1992
##  9 Martin_ Doom! It's Seven O'Clock The Boo Radleys  1995
## 10 Leaves And Sand                  The Boo Radleys  1993
## # … with 12 more rows
```
…
2. Go ahead and add the corresponding albums to the `time` tibble, being sure to preserve rows even if album info is not readily available.
left join preserve everything from base, and add if available (so doesnt throw away, does na)


```r
time %>% 
  left_join(album, by=c("song","artist_name"))
```

```
## # A tibble: 22 x 5
##    song                artist_name     year city        album              
##    <chr>               <chr>          <int> <chr>       <chr>              
##  1 Corduroy            Pearl Jam       1994 <NA>        <NA>               
##  2 Grievance           Pearl Jam       2000 Seattle, WA Binaural           
##  3 Stupidmop           Pearl Jam       1994 Seattle, WA Vitalogy           
##  4 Present Tense       Pearl Jam       1996 Seattle, WA No Code            
##  5 MFC                 Pearl Jam       1998 Seattle, WA Live On Two Legs   
##  6 Lukin               Pearl Jam       1996 Seattle, WA Seattle Washington…
##  7 It's Lulu           The Boo Radle…  1995 Liverpool,… Best Of            
##  8 Sparrow             The Boo Radle…  1992 Liverpool,… Everything's Alrig…
##  9 Martin_ Doom! It's… The Boo Radle…  1995 <NA>        <NA>               
## 10 Leaves And Sand     The Boo Radle…  1993 <NA>        <NA>               
## # … with 12 more rows
```
…
5. You've come across these two tibbles, and just wish all the info was available in one tibble. What would you do?
because you are not saying artist name is same, we will split from x y. doesnt know corduroy city and artist so confused. so add artist name

```r
time %>% 
  full_join(album, by = "song")
```

```
## # A tibble: 23 x 6
##    song          artist_name.x   year artist_name.y  city     album        
##    <chr>         <chr>          <int> <chr>          <chr>    <chr>        
##  1 Corduroy      Pearl Jam       1994 <NA>           <NA>     <NA>         
##  2 Grievance     Pearl Jam       2000 Pearl Jam      Seattle… Binaural     
##  3 Stupidmop     Pearl Jam       1994 Pearl Jam      Seattle… Vitalogy     
##  4 Present Tense Pearl Jam       1996 Pearl Jam      Seattle… No Code      
##  5 MFC           Pearl Jam       1998 Pearl Jam      Seattle… Live On Two …
##  6 Lukin         Pearl Jam       1996 Pearl Jam      Seattle… Seattle Wash…
##  7 It's Lulu     The Boo Radle…  1995 The Boo Radle… Liverpo… Best Of      
##  8 Sparrow       The Boo Radle…  1992 The Boo Radle… Liverpo… Everything's…
##  9 Martin_ Doom… The Boo Radle…  1995 <NA>           <NA>     <NA>         
## 10 Leaves And S… The Boo Radle…  1993 <NA>           <NA>     <NA>         
## # … with 13 more rows
```

```r
time %>% 
  full_join(album, by = c("song","artist_name"))
```

```
## # A tibble: 23 x 5
##    song                artist_name     year city        album              
##    <chr>               <chr>          <int> <chr>       <chr>              
##  1 Corduroy            Pearl Jam       1994 <NA>        <NA>               
##  2 Grievance           Pearl Jam       2000 Seattle, WA Binaural           
##  3 Stupidmop           Pearl Jam       1994 Seattle, WA Vitalogy           
##  4 Present Tense       Pearl Jam       1996 Seattle, WA No Code            
##  5 MFC                 Pearl Jam       1998 Seattle, WA Live On Two Legs   
##  6 Lukin               Pearl Jam       1996 Seattle, WA Seattle Washington…
##  7 It's Lulu           The Boo Radle…  1995 Liverpool,… Best Of            
##  8 Sparrow             The Boo Radle…  1992 Liverpool,… Everything's Alrig…
##  9 Martin_ Doom! It's… The Boo Radle…  1995 <NA>        <NA>               
## 10 Leaves And Sand     The Boo Radle…  1993 <NA>        <NA>               
## # … with 13 more rows
```
…
